…
``` r
data("instacart")
```

The dataset `instacart` consists of 15 variables and 1384617
observations. It describes the products ordered through Instacart for
several order numbers.

``` r
instacart |> 
  count(aisle) |> 
  arrange(desc(n)) |> 
  drop_na(aisle)
## # A tibble: 134 × 2
##    aisle                              n
##    <chr>                          <int>
##  1 fresh vegetables              150609
##  2 fresh fruits                  150473
##  3 packaged vegetables fruits     78493
##  4 yogurt                         55240
##  5 packaged cheese                41699
##  6 water seltzer sparkling water  36617
##  7 milk                           32644
##  8 chips pretzels                 31269
##  9 soy lactosefree                26240
## 10 bread                          23635
## # ℹ 124 more rows
```
…
States observed at 7 or more locations in 2022

``` r
brfss_df |> 
  filter(year == 2002) |> 
  group_by(state) |> 
  summarize(n_location = n()) |> 
  filter(n_location >=7)
## # A tibble: 36 × 2
##    state n_location
##    <chr>      <int>
##  1 AZ            10
##  2 CO            20
##  3 CT            35
##  4 DE            15
##  5 FL            35
##  6 GA            15
##  7 HI            20
##  8 ID            10
##  9 IL            15
## 10 IN            10
## # ℹ 26 more rows
```

In 2002, 36 states were observed at 7 or more locations.

States observed at 7 or more locations in 2010

``` r
brfss_df |> 
  filter(year == 2010) |> 
  group_by(state) |> 
  summarize(n_location = n()) |> 
  filter(n_location >=7)
## # A tibble: 45 × 2
##    state n_location
##    <chr>      <int>
##  1 AL            15
##  2 AR            15
##  3 AZ            15
##  4 CA            60
##  5 CO            35
##  6 CT            25
##  7 DE            15
##  8 FL           205
##  9 GA            20
## 10 HI            20
## # ℹ 35 more rows
```
…
